C:\Users\TKIBU66\Desktop\security-one\src\main\java\bean\LoginBean.java
C:\Users\TKIBU66\Desktop\security-one\src\main\java\util\Endpoints.java
C:\Users\TKIBU66\Desktop\security-one\src\main\java\service\remotes\UserServiceRemote.java
C:\Users\TKIBU66\Desktop\security-one\src\main\java\util\Navigation.java
C:\Users\TKIBU66\Desktop\security-one\src\main\java\domain\User.java
C:\Users\TKIBU66\Desktop\security-one\src\main\java\bean\RegisterBean.java
C:\Users\TKIBU66\Desktop\security-one\src\main\java\repository\UserRepository.java
C:\Users\TKIBU66\Desktop\security-one\src\main\java\service\UserService.java
C:\Users\TKIBU66\Desktop\security-one\src\main\java\service\generics\GenericServiceRemote.java
C:\Users\TKIBU66\Desktop\security-one\src\main\java\service\generics\GenericService.java
C:\Users\TKIBU66\Desktop\security-one\src\main\java\repository\GenericRepository.java
C:\Users\TKIBU66\Desktop\security-one\src\main\java\repository\EntityManagerProducer.java
C:\Users\TKIBU66\Desktop\security-one\src\main\java\UserIdentityStore.java
C:\Users\TKIBU66\Desktop\security-one\src\main\java\util\Encrypt.java
C:\Users\TKIBU66\Desktop\security-one\src\main\java\ApplicationConfig.java
